How to keep it togetheR
…
Lets examine two models for two countries where the non-linear did and did not not improve the R.squared: Ireland (improved) and Belgium (not-improved)

x <- nested_pertussis %>%
  select(country,
         data, 
         models_lm,
         statistics_nl) %>%
  gather(models_lm:statistics_nl, key = "models", value = "model_params") %>%
 print()  

## # A tibble: 104 x 4
##    country                data              models    model_params
##    <chr>                  <list>            <chr>     <list>      
##  1 Albania                <tibble [22 x 2]> models_lm <S3: lm>    
##  2 Armenia                <tibble [23 x 2]> models_lm <S3: lm>    
##  3 Austria                <tibble [22 x 2]> models_lm <S3: lm>    
##  4 Azerbaijan             <tibble [23 x 2]> models_lm <S3: lm>    
##  5 Belarus                <tibble [22 x 2]> models_lm <S3: lm>    
##  6 Belgium                <tibble [21 x 2]> models_lm <S3: lm>    
##  7 Bosnia and Herzegovina <tibble [19 x 2]> models_lm <S3: lm>    
##  8 Bulgaria               <tibble [22 x 2]> models_lm <S3: lm>    
##  9 Croatia                <tibble [23 x 2]> models_lm <S3: lm>    
## 10 Cyprus                 <tibble [23 x 2]> models_lm <S3: lm>    
## # ... with 94 more rows
…
